{
  "outputs": [
    {
      "name": "_ROUTEMAP",
      "domains": [
        {
          "name": "Transport_and_Mobility",
          "url": "http://www.surf.scss.tcd.ie/cityOntology/#Transport_and_Mobility"
        }
      ],
      "type": "http://www.surf.scss.tcd.ie/IoTservices.owl#routeMap",
      "desc": "Output of service route_presentation"
    }
  ],
  "inputs": [
    {
      "name": "_ROUTEPARAMETERS",
      "domains": [
        {
          "name": "Transport_and_Mobility",
          "url": "http://www.surf.scss.tcd.ie/cityOntology/#Transport_and_Mobility"
        }
      ],
      "state": "used",
      "type": "http://www.surf.scss.tcd.ie/IoTservices.owl#routeParameters",
      "desc": "Input of service route_air_pollution"
    }
  ],
  "domains": [
    {
      "name": "Transport_and_Mobility",
      "url": "http://www.surf.scss.tcd.ie/cityOntology/#Transport_and_Mobility"
    }
  ],
  "id": "route_air_pollution_x_route_presentation"
}