{
  "outputs": [
    {
      "name": "_ZONEINFO",
      "type": "http://www.surf.scss.tcd.ie/IoTservices.owl#zoneInfo",
      "desc": "Output of service crowd_areas"
    }
  ],
  "provider": {
    "type": "asp"
  },
  "inputs": [
    {
      "name": "_ZONETOMONITOR",
      "type": "http://www.surf.scss.tcd.ie/IoTservices.owl#zoneToMonitor",
      "desc": "Input of service crowd_areas"
    }
  ],
  "name": "crowd_areas",
  "description": "This is the service crowd_areas",
  "domains": [
    {
      "name": "Transport_and_Mobility",
      "url": "http://www.surf.scss.tcd.ie/cityOntology/#Transport_and_Mobility"
    }
  ],
  "id": "transportandmobility/104_crowd_areas",
  "state": true,
  "url": "http://surf.scss.tcd.ie/_provider_/transportandmobility/104_crowd_areas"
}