{
  "outputs": [
    {
      "name": "_INDUSTRYINFO",
      "type": "http://www.surf.scss.tcd.ie/IoTservices.owl#industryInfo",
      "desc": "Output of service industry_pollution_monitoring"
    }
  ],
  "provider": {
    "type": "wsdn"
  },
  "inputs": [
    {
      "name": "_INDUSTRYID",
      "type": "http://www.surf.scss.tcd.ie/IoTservices.owl#industryId",
      "desc": "Input of service industry_pollution_monitoring"
    }
  ],
  "name": "industry_pollution_monitoring",
  "description": "This is the service industry_pollution_monitoring",
  "domains": [
    {
      "name": "Industry",
      "url": "http://www.surf.scss.tcd.ie/cityOntology/#Industry"
    },
    {
      "name": "Nature",
      "url": "http://www.surf.scss.tcd.ie/cityOntology/#Nature"
    }
  ],
  "id": "industry/118_industry_pollution_monitoring",
  "state": true,
  "url": "http://surf.scss.tcd.ie/_provider_/industry/118_industry_pollution_monitoring"
}