{
  "outputs": [
    {
      "name": "_STREETSDASHBOARD",
      "type": "http://www.surf.scss.tcd.ie/IoTservices.owl#streetsDashboard",
      "desc": "Output of service streets_dashboard"
    }
  ],
  "provider": {
    "type": "ws"
  },
  "inputs": [
    {
      "name": "_STREETSVIDEO",
      "type": "http://www.surf.scss.tcd.ie/IoTservices.owl#streetsVideo",
      "desc": "Input of service streets_dashboard"
    },
    {
      "name": "_STREETSTEMPERATURE",
      "type": "http://www.surf.scss.tcd.ie/IoTservices.owl#streetsTemperature",
      "desc": "Input of service streets_dashboard"
    },
    {
      "name": "_STREETSWATERLEVEL",
      "type": "http://www.surf.scss.tcd.ie/IoTservices.owl#streetsWaterLevel",
      "desc": "Input of service streets_dashboard"
    }
  ],
  "name": "streets_dashboard",
  "description": "This is the service streets_dashboard",
  "domains": [
    {
      "name": "Government_and_Planning",
      "url": "http://www.surf.scss.tcd.ie/cityOntology/#Government_and_Planning"
    }
  ],
  "id": "governmentandplanning/128_streets_dashboard",
  "state": true,
  "url": "http://surf.scss.tcd.ie/_provider_/governmentandplanning/128_streets_dashboard"
}