{
  "outputs": [
    {
      "name": "_CALLTAXI",
      "type": "http://www.surf.scss.tcd.ie/IoTservices.owl#callTaxi",
      "desc": "Output of service call_taxi"
    }
  ],
  "provider": {
    "type": "asp"
  },
  "inputs": [
    {
      "name": "_TAXILOCATION",
      "type": "http://www.surf.scss.tcd.ie/IoTservices.owl#taxiLocation",
      "desc": "Input of service call_taxi"
    },
    {
      "name": "_TAXIAVAILABILITY",
      "type": "http://www.surf.scss.tcd.ie/IoTservices.owl#taxiAvailability",
      "desc": "Input of service call_taxi"
    }
  ],
  "name": "call_taxi",
  "description": "This is the service call_taxi",
  "domains": [
    {
      "name": "Transport_and_Mobility",
      "url": "http://www.surf.scss.tcd.ie/cityOntology/#Transport_and_Mobility"
    }
  ],
  "id": "transportandmobility/12_call_taxi",
  "state": true,
  "url": "http://surf.scss.tcd.ie/_provider_/transportandmobility/12_call_taxi"
}