{
  "outputs": [
    {
      "name": "_CITYZONETOMONITOR",
      "type": "http://www.surf.scss.tcd.ie/IoTservices.owl#cityZoneToMonitor",
      "desc": "Output of service street_surveillance_configurator"
    }
  ],
  "provider": {
    "type": "ws"
  },
  "inputs": [
    {
      "name": "_STREETSURVEILLANCEPARAMETERS",
      "type": "http://www.surf.scss.tcd.ie/IoTservices.owl#streetSurveillanceParameters",
      "desc": "Input of service street_surveillance_configurator"
    }
  ],
  "name": "street_surveillance_configurator",
  "description": "This is the service street_surveillance_configurator",
  "domains": [
    {
      "name": "Safety_and_Emergencies",
      "url": "http://www.surf.scss.tcd.ie/cityOntology/#Safety_and_Emergencies"
    }
  ],
  "id": "safetyandemergencies/21_street_surveillance_configurator",
  "state": true,
  "url": "http://surf.scss.tcd.ie/_provider_/safetyandemergencies/21_street_surveillance_configurator"
}