{
  "outputs": [
    {
      "name": "_TRAFFICINFO",
      "type": "http://www.surf.scss.tcd.ie/IoTservices.owl#trafficInfo",
      "desc": "Output of service traffic_detection"
    }
  ],
  "provider": {
    "type": "asp"
  },
  "inputs": [
    {
      "name": "_ROUTEPARAMETERS",
      "type": "http://www.surf.scss.tcd.ie/IoTservices.owl#routeParameters",
      "desc": "Input of service traffic_detection"
    }
  ],
  "name": "traffic_detection",
  "description": "This is the service traffic_detection",
  "domains": [
    {
      "name": "Transport_and_Mobility",
      "url": "http://www.surf.scss.tcd.ie/cityOntology/#Transport_and_Mobility"
    }
  ],
  "id": "transportandmobility/2_traffic_detection",
  "state": true,
  "url": "http://surf.scss.tcd.ie/_provider_/transportandmobility/2_traffic_detection"
}