{
  "outputs": [
    {
      "name": "_STARTALARM",
      "type": "http://www.surf.scss.tcd.ie/IoTservices.owl#startAlarm",
      "desc": "Output of service notify_police"
    }
  ],
  "provider": {
    "type": "wsdn"
  },
  "inputs": [
    {
      "name": "_ALERTNOTIFICATION",
      "type": "http://www.surf.scss.tcd.ie/IoTservices.owl#alertNotification",
      "desc": "Input of service notify_police"
    }
  ],
  "name": "notify_police",
  "description": "This is the service notify_police",
  "domains": [
    {
      "name": "Safety_and_Emergencies",
      "url": "http://www.surf.scss.tcd.ie/cityOntology/#Safety_and_Emergencies"
    }
  ],
  "id": "safetyandemergencies/33_notify_police",
  "state": true,
  "url": "http://surf.scss.tcd.ie/_provider_/safetyandemergencies/33_notify_police"
}