{
  "outputs": [
    {
      "name": "_COURSESTRUCTURE",
      "type": "http://www.surf.scss.tcd.ie/IoTservices.owl#courseStructure",
      "desc": "Output of service course_configuration"
    }
  ],
  "provider": {
    "type": "ws"
  },
  "inputs": [
    {
      "name": "_COURSEPARAMETERS",
      "type": "http://www.surf.scss.tcd.ie/IoTservices.owl#courseParameters",
      "desc": "Input of service course_configuration"
    }
  ],
  "name": "course_configuration",
  "description": "This is the service course_configuration",
  "domains": [
    {
      "name": "Educational",
      "url": "http://www.surf.scss.tcd.ie/cityOntology/#Educational"
    }
  ],
  "id": "education/46_course_configuration",
  "state": true,
  "url": "http://surf.scss.tcd.ie/_provider_/education/46_course_configuration"
}