{
  "outputs": [
    {
      "name": "_STUDYPLAN",
      "type": "http://www.surf.scss.tcd.ie/IoTservices.owl#studyPlan",
      "desc": "Output of service personalised_study_plan"
    }
  ],
  "provider": {
    "type": "ws"
  },
  "inputs": [
    {
      "name": "_COURSECONTENT",
      "type": "http://www.surf.scss.tcd.ie/IoTservices.owl#courseContent",
      "desc": "Input of service personalised_study_plan"
    }
  ],
  "name": "personalised_study_plan",
  "description": "This is the service personalised_study_plan",
  "domains": [
    {
      "name": "Educational",
      "url": "http://www.surf.scss.tcd.ie/cityOntology/#Educational"
    }
  ],
  "id": "education/49_personalised_study_plan",
  "state": true,
  "url": "http://surf.scss.tcd.ie/_provider_/education/49_personalised_study_plan"
}