{
  "outputs": [
    {
      "name": "_INVENTORYCONFIG",
      "type": "http://www.surf.scss.tcd.ie/IoTservices.owl#inventoryConfig",
      "desc": "Output of service inventory_configuration"
    }
  ],
  "provider": {
    "type": "ws"
  },
  "inputs": [
    {
      "name": "_INVENTORYDATA",
      "type": "http://www.surf.scss.tcd.ie/IoTservices.owl#inventoryData",
      "desc": "Input of service inventory_configuration"
    }
  ],
  "name": "inventory_configuration",
  "description": "This is the service inventory_configuration",
  "domains": [
    {
      "name": "Clothing",
      "url": "http://www.surf.scss.tcd.ie/cityOntology/#Clothing"
    }
  ],
  "id": "clothing/71_inventory_configuration",
  "state": true,
  "url": "http://surf.scss.tcd.ie/_provider_/clothing/71_inventory_configuration"
}