{
  "outputs": [
    {
      "name": "_ACTIVITYINFO",
      "type": "http://www.surf.scss.tcd.ie/IoTservices.owl#activityInfo",
      "desc": "Output of service activity_search"
    }
  ],
  "provider": {
    "type": "ws"
  },
  "inputs": [
    {
      "name": "_ACTIVITYPARAMETERS",
      "type": "http://www.surf.scss.tcd.ie/IoTservices.owl#activityParameters",
      "desc": "Input of service activity_search"
    }
  ],
  "name": "activity_search",
  "description": "This is the service activity_search",
  "domains": [
    {
      "name": "Activity",
      "url": "http://www.surf.scss.tcd.ie/cityOntology/#Activity"
    }
  ],
  "id": "activity/74_activity_search",
  "state": true,
  "url": "http://surf.scss.tcd.ie/_provider_/activity/74_activity_search"
}