{
  "outputs": [
    {
      "name": "_SUGGESTEDACTIVITIES",
      "type": "http://www.surf.scss.tcd.ie/IoTservices.owl#suggestedActivities",
      "desc": "Output of service recommended_activities"
    }
  ],
  "provider": {
    "type": "ws"
  },
  "inputs": [
    {
      "name": "_ACTIVITYINFO",
      "type": "http://www.surf.scss.tcd.ie/IoTservices.owl#activityInfo",
      "desc": "Input of service recommended_activities"
    }
  ],
  "name": "recommended_activities",
  "description": "This is the service recommended_activities",
  "domains": [
    {
      "name": "Activity",
      "url": "http://www.surf.scss.tcd.ie/cityOntology/#Activity"
    }
  ],
  "id": "activity/76_recommended_activities",
  "state": true,
  "url": "http://surf.scss.tcd.ie/_provider_/activity/76_recommended_activities"
}