{
  "outputs": [
    {
      "name": "_AMBULANCEROUTE",
      "type": "http://www.surf.scss.tcd.ie/IoTservices.owl#ambulanceRoute",
      "desc": "Output of service calculate_ambulance_path"
    }
  ],
  "provider": {
    "type": "asp"
  },
  "inputs": [
    {
      "name": "_AMBULANCEINFO",
      "type": "http://www.surf.scss.tcd.ie/IoTservices.owl#ambulanceInfo",
      "desc": "Input of service calculate_ambulance_path"
    }
  ],
  "name": "calculate_ambulance_path",
  "description": "This is the service calculate_ambulance_path",
  "domains": [
    {
      "name": "Transport_and_Mobility",
      "url": "http://www.surf.scss.tcd.ie/cityOntology/#Transport_and_Mobility"
    }
  ],
  "id": "transportandmobility/94_calculate_ambulance_path",
  "state": true,
  "url": "http://surf.scss.tcd.ie/_provider_/transportandmobility/94_calculate_ambulance_path"
}