{
  "outputs": [
    {
      "name": "_BUILDINGDASHBOARD",
      "domains": [
        {
          "name": "Safety_and_Emergencies",
          "url": "http://www.surf.scss.tcd.ie/cityOntology/#Safety_and_Emergencies"
        },
        {
          "name": "Buildings",
          "url": "http://www.surf.scss.tcd.ie/cityOntology/#Buildings"
        }
      ],
      "type": "http://www.surf.scss.tcd.ie/IoTservices.owl#buildingDashboard",
      "desc": "Output of service building_anomaly_detection"
    }
  ],
  "inputs": [
    {
      "name": "_BUILDINGINFO",
      "domains": [
        {
          "name": "Safety_and_Emergencies",
          "url": "http://www.surf.scss.tcd.ie/cityOntology/#Safety_and_Emergencies"
        },
        {
          "name": "Buildings",
          "url": "http://www.surf.scss.tcd.ie/cityOntology/#Buildings"
        }
      ],
      "state": "used",
      "type": "http://www.surf.scss.tcd.ie/IoTservices.owl#buildingInfo",
      "desc": "Input of service building_status"
    }
  ],
  "domains": [
    {
      "name": "Safety_and_Emergencies",
      "url": "http://www.surf.scss.tcd.ie/cityOntology/#Safety_and_Emergencies"
    },
    {
      "name": "Buildings",
      "url": "http://www.surf.scss.tcd.ie/cityOntology/#Buildings"
    }
  ],
  "id": "building_status_x_building_anomaly_detection"
}