{
  "outputs": [
    {
      "name": "_INVENTORYREPORT",
      "domains": [
        {
          "name": "Clothing",
          "url": "http://www.surf.scss.tcd.ie/cityOntology/#Clothing"
        }
      ],
      "type": "http://www.surf.scss.tcd.ie/IoTservices.owl#inventoryReport",
      "desc": "Output of service inventory_report"
    }
  ],
  "inputs": [
    {
      "name": "_INVENTORYDATA",
      "domains": [
        {
          "name": "Clothing",
          "url": "http://www.surf.scss.tcd.ie/cityOntology/#Clothing"
        }
      ],
      "state": "used",
      "type": "http://www.surf.scss.tcd.ie/IoTservices.owl#inventoryData",
      "desc": "Input of service inventory_configuration"
    }
  ],
  "domains": [
    {
      "name": "Clothing",
      "url": "http://www.surf.scss.tcd.ie/cityOntology/#Clothing"
    }
  ],
  "id": "inventory_configuration_x_inventory_report"
}