{
  "outputs": [
    {
      "name": "_CONFIGUREDGRID",
      "domains": [
        {
          "name": "Energy",
          "url": "http://www.surf.scss.tcd.ie/cityOntology/#Energy"
        }
      ],
      "type": "http://www.surf.scss.tcd.ie/IoTservices.owl#configuredGrid",
      "desc": "Output of service grid_configuration"
    }
  ],
  "inputs": [
    {
      "name": "_GRIDID",
      "domains": [
        {
          "name": "Energy",
          "url": "http://www.surf.scss.tcd.ie/cityOntology/#Energy"
        }
      ],
      "state": "used",
      "type": "http://www.surf.scss.tcd.ie/IoTservices.owl#gridId",
      "desc": "Input of service grid_monitoring"
    }
  ],
  "domains": [
    {
      "name": "Energy",
      "url": "http://www.surf.scss.tcd.ie/cityOntology/#Energy"
    }
  ],
  "id": "grid_monitoring_x_grid_configuration"
}