{
  "outputs": [
    {
      "name": "_SIMILARRESULTS",
      "domains": [
        {
          "name": "Sport",
          "url": "http://www.surf.scss.tcd.ie/cityOntology/#Sport"
        },
        {
          "name": "Activity",
          "url": "http://www.surf.scss.tcd.ie/cityOntology/#Activity"
        },
        {
          "name": "Leisure",
          "url": "http://www.surf.scss.tcd.ie/cityOntology/#Leisure"
        }
      ],
      "type": "http://www.surf.scss.tcd.ie/IoTservices.owl#similarResults",
      "desc": "Output of service football_results"
    }
  ],
  "inputs": [
    {
      "name": "_EVENTPARAMETERS",
      "domains": [
        {
          "name": "Sport",
          "url": "http://www.surf.scss.tcd.ie/cityOntology/#Sport"
        },
        {
          "name": "Leisure",
          "url": "http://www.surf.scss.tcd.ie/cityOntology/#Leisure"
        },
        {
          "name": "Activity",
          "url": "http://www.surf.scss.tcd.ie/cityOntology/#Activity"
        }
      ],
      "state": "used",
      "type": "http://www.surf.scss.tcd.ie/IoTservices.owl#eventParameters",
      "desc": "Input of service buy_football_tickets"
    }
  ],
  "domains": [
    {
      "name": "Sport",
      "url": "http://www.surf.scss.tcd.ie/cityOntology/#Sport"
    },
    {
      "name": "Leisure",
      "url": "http://www.surf.scss.tcd.ie/cityOntology/#Leisure"
    },
    {
      "name": "Activity",
      "url": "http://www.surf.scss.tcd.ie/cityOntology/#Activity"
    }
  ],
  "id": "buy_football_tickets_x_football_results"
}