{
  "outputs": [
    {
      "name": "_STREETSTEMPERATURE",
      "domains": [
        {
          "name": "Government_and_Planning",
          "url": "http://www.surf.scss.tcd.ie/cityOntology/#Government_and_Planning"
        },
        {
          "name": "Nature",
          "url": "http://www.surf.scss.tcd.ie/cityOntology/#Nature"
        }
      ],
      "type": "http://www.surf.scss.tcd.ie/IoTservices.owl#streetsTemperature",
      "desc": "Output of service streets_temperature"
    }
  ],
  "inputs": [
    {
      "name": "_MONITORINGCONFIGURATION",
      "domains": [
        {
          "name": "Safety_and_Emergencies",
          "url": "http://www.surf.scss.tcd.ie/cityOntology/#Safety_and_Emergencies"
        },
        {
          "name": "Transport_and_Mobility",
          "url": "http://www.surf.scss.tcd.ie/cityOntology/#Transport_and_Mobility"
        },
        {
          "name": "Government_and_Planning",
          "url": "http://www.surf.scss.tcd.ie/cityOntology/#Government_and_Planning"
        }
      ],
      "state": "used",
      "type": "http://www.surf.scss.tcd.ie/IoTservices.owl#monitoringConfiguration",
      "desc": "Input of service check_streets"
    }
  ],
  "domains": [
    {
      "name": "Safety_and_Emergencies",
      "url": "http://www.surf.scss.tcd.ie/cityOntology/#Safety_and_Emergencies"
    },
    {
      "name": "Transport_and_Mobility",
      "url": "http://www.surf.scss.tcd.ie/cityOntology/#Transport_and_Mobility"
    },
    {
      "name": "Government_and_Planning",
      "url": "http://www.surf.scss.tcd.ie/cityOntology/#Government_and_Planning"
    },
    {
      "name": "Nature",
      "url": "http://www.surf.scss.tcd.ie/cityOntology/#Nature"
    }
  ],
  "id": "check_streets_x_streets_temperature"
}