{
  "outputs": [
    {
      "name": "_NOISEINFO",
      "domains": [
        {
          "name": "Transport_and_Mobility",
          "url": "http://www.surf.scss.tcd.ie/cityOntology/#Transport_and_Mobility"
        }
      ],
      "type": "http://www.surf.scss.tcd.ie/IoTservices.owl#noiseInfo",
      "desc": "Output of service route_noise_service"
    }
  ],
  "inputs": [
    {
      "name": "_FROM",
      "domains": [
        {
          "name": "Transport_and_Mobility",
          "url": "http://www.surf.scss.tcd.ie/cityOntology/#Transport_and_Mobility"
        }
      ],
      "state": "used",
      "type": "http://www.surf.scss.tcd.ie/IoTservices.owl#from",
      "desc": "Input of service route_configurator"
    },
    {
      "name": "_TO",
      "domains": [
        {
          "name": "Transport_and_Mobility",
          "url": "http://www.surf.scss.tcd.ie/cityOntology/#Transport_and_Mobility"
        }
      ],
      "state": "used",
      "type": "http://www.surf.scss.tcd.ie/IoTservices.owl#to",
      "desc": "Input of service route_configurator"
    }
  ],
  "domains": [
    {
      "name": "Transport_and_Mobility",
      "url": "http://www.surf.scss.tcd.ie/cityOntology/#Transport_and_Mobility"
    }
  ],
  "id": "route_configurator_x_route_noise_service"
}