{
  "outputs": [
    {
      "name": "_HOMEALARM",
      "domains": [
        {
          "name": "Safety_and_Emergencies",
          "url": "http://www.surf.scss.tcd.ie/cityOntology/#Safety_and_Emergencies"
        }
      ],
      "type": "http://www.surf.scss.tcd.ie/IoTservices.owl#homeAlarm",
      "desc": "Output of service start_home_alarm"
    }
  ],
  "inputs": [
    {
      "name": "_ALERTNOTIFICATION",
      "domains": [
        {
          "name": "Safety_and_Emergencies",
          "url": "http://www.surf.scss.tcd.ie/cityOntology/#Safety_and_Emergencies"
        }
      ],
      "state": "used",
      "type": "http://www.surf.scss.tcd.ie/IoTservices.owl#alertNotification",
      "desc": "Input of service notify_home_owner"
    }
  ],
  "domains": [
    {
      "name": "Safety_and_Emergencies",
      "url": "http://www.surf.scss.tcd.ie/cityOntology/#Safety_and_Emergencies"
    }
  ],
  "id": "notify_home_owner_x_start_home_alarm"
}