{
  "outputs": [
    {
      "name": "_UPDATEDROOMCALENDAR",
      "domains": [
        {
          "name": "Educational",
          "url": "http://www.surf.scss.tcd.ie/cityOntology/#Educational"
        }
      ],
      "type": "http://www.surf.scss.tcd.ie/IoTservices.owl#updatedRoomCalendar",
      "desc": "Output of service update_room_calendar"
    }
  ],
  "inputs": [
    {
      "name": "_DISPLAYROOMINFO",
      "domains": [
        {
          "name": "Educational",
          "url": "http://www.surf.scss.tcd.ie/cityOntology/#Educational"
        }
      ],
      "state": "used",
      "type": "http://www.surf.scss.tcd.ie/IoTservices.owl#displayRoomInfo",
      "desc": "Input of service book_room_campus"
    },
    {
      "name": "_DISPLAYVIDEO",
      "domains": [
        {
          "name": "Educational",
          "url": "http://www.surf.scss.tcd.ie/cityOntology/#Educational"
        }
      ],
      "state": "used",
      "type": "http://www.surf.scss.tcd.ie/IoTservices.owl#displayVideo",
      "desc": "Input of service book_room_campus"
    }
  ],
  "domains": [
    {
      "name": "Educational",
      "url": "http://www.surf.scss.tcd.ie/cityOntology/#Educational"
    }
  ],
  "id": "book_room_campus_x_update_room_calendar"
}