{
  "outputs": [
    {
      "name": "_PRODUCTS",
      "domains": [
        {
          "name": "Sport",
          "url": "http://www.surf.scss.tcd.ie/cityOntology/#Sport"
        },
        {
          "name": "Leisure",
          "url": "http://www.surf.scss.tcd.ie/cityOntology/#Leisure"
        },
        {
          "name": "Activity",
          "url": "http://www.surf.scss.tcd.ie/cityOntology/#Activity"
        }
      ],
      "type": "http://www.surf.scss.tcd.ie/IoTservices.owl#products",
      "desc": "Output of service buy_sport_products"
    }
  ],
  "inputs": [
    {
      "name": "_OFFERSINFO",
      "domains": [
        {
          "name": "Clothing",
          "url": "http://www.surf.scss.tcd.ie/cityOntology/#Clothing"
        }
      ],
      "state": "used",
      "type": "http://www.surf.scss.tcd.ie/IoTservices.owl#offersInfo",
      "desc": "Input of service present_offers_mirror"
    }
  ],
  "domains": [
    {
      "name": "Clothing",
      "url": "http://www.surf.scss.tcd.ie/cityOntology/#Clothing"
    },
    {
      "name": "Sport",
      "url": "http://www.surf.scss.tcd.ie/cityOntology/#Sport"
    },
    {
      "name": "Leisure",
      "url": "http://www.surf.scss.tcd.ie/cityOntology/#Leisure"
    },
    {
      "name": "Activity",
      "url": "http://www.surf.scss.tcd.ie/cityOntology/#Activity"
    }
  ],
  "id": "present_offers_mirror_x_buy_sport_products"
}