{
  "outputs": [
    {
      "name": "_INVENTORYREPORT",
      "domains": [
        {
          "name": "Clothing",
          "url": "http://www.surf.scss.tcd.ie/cityOntology/#Clothing"
        }
      ],
      "type": "http://www.surf.scss.tcd.ie/IoTservices.owl#inventoryReport",
      "desc": "Output of service inventory_report"
    }
  ],
  "inputs": [
    {
      "name": "_INVENTORYCONFIG",
      "domains": [
        {
          "name": "Clothing",
          "url": "http://www.surf.scss.tcd.ie/cityOntology/#Clothing"
        }
      ],
      "state": "used",
      "type": "http://www.surf.scss.tcd.ie/IoTservices.owl#inventoryConfig",
      "desc": "Input of service products_monitoring"
    }
  ],
  "domains": [
    {
      "name": "Clothing",
      "url": "http://www.surf.scss.tcd.ie/cityOntology/#Clothing"
    }
  ],
  "id": "products_monitoring_x_inventory_report"
}