{
  "outputs": [
    {
      "name": "_RELATEDCONTENT",
      "domains": [
        {
          "name": "Activity",
          "url": "http://www.surf.scss.tcd.ie/cityOntology/#Activity"
        }
      ],
      "type": "http://www.surf.scss.tcd.ie/IoTservices.owl#relatedContent",
      "desc": "Output of service related_content"
    }
  ],
  "inputs": [
    {
      "name": "_ACTIVITYPARAMETERS",
      "domains": [
        {
          "name": "Activity",
          "url": "http://www.surf.scss.tcd.ie/cityOntology/#Activity"
        }
      ],
      "state": "used",
      "type": "http://www.surf.scss.tcd.ie/IoTservices.owl#activityParameters",
      "desc": "Input of service activity_search"
    }
  ],
  "domains": [
    {
      "name": "Activity",
      "url": "http://www.surf.scss.tcd.ie/cityOntology/#Activity"
    }
  ],
  "id": "activity_search_x_related_content"
}