{
  "outputs": [
    {
      "name": "_SENDNOTIFICATION",
      "domains": [
        {
          "name": "Health",
          "url": "http://www.surf.scss.tcd.ie/cityOntology/#Health"
        },
        {
          "name": "Safety_and_Emergencies",
          "url": "http://www.surf.scss.tcd.ie/cityOntology/#Safety_and_Emergencies"
        }
      ],
      "type": "http://www.surf.scss.tcd.ie/IoTservices.owl#sendNotification",
      "desc": "Output of service notify_emergency"
    }
  ],
  "inputs": [
    {
      "name": "_AMBULANCEROUTE",
      "domains": [
        {
          "name": "Communications",
          "url": "http://www.surf.scss.tcd.ie/cityOntology/#Communications"
        },
        {
          "name": "Transport_and_Mobility",
          "url": "http://www.surf.scss.tcd.ie/cityOntology/#Transport_and_Mobility"
        }
      ],
      "state": "used",
      "type": "http://www.surf.scss.tcd.ie/IoTservices.owl#ambulanceRoute",
      "desc": "Input of service configure_vehicle_communication"
    }
  ],
  "domains": [
    {
      "name": "Communications",
      "url": "http://www.surf.scss.tcd.ie/cityOntology/#Communications"
    },
    {
      "name": "Transport_and_Mobility",
      "url": "http://www.surf.scss.tcd.ie/cityOntology/#Transport_and_Mobility"
    },
    {
      "name": "Health",
      "url": "http://www.surf.scss.tcd.ie/cityOntology/#Health"
    },
    {
      "name": "Safety_and_Emergencies",
      "url": "http://www.surf.scss.tcd.ie/cityOntology/#Safety_and_Emergencies"
    }
  ],
  "id": "configure_vehicle_communication_x_notify_emergency"
}