{
  "outputs": [
    {
      "name": "_ZONEINFO",
      "domains": [
        {
          "name": "Transport_and_Mobility",
          "url": "http://www.surf.scss.tcd.ie/cityOntology/#Transport_and_Mobility"
        }
      ],
      "type": "http://www.surf.scss.tcd.ie/IoTservices.owl#zoneInfo",
      "desc": "Output of service crowd_areas"
    }
  ],
  "expectedPlanLength": 1,
  "inputs": [
    {
      "name": "_ZONETOMONITOR",
      "domains": [
        {
          "name": "Transport_and_Mobility",
          "url": "http://www.surf.scss.tcd.ie/cityOntology/#Transport_and_Mobility"
        }
      ],
      "type": "http://www.surf.scss.tcd.ie/IoTservices.owl#zoneToMonitor",
      "desc": "Input of service crowd_areas"
    }
  ],
  "domains": [
    {
      "name": "Transport_and_Mobility",
      "url": "http://www.surf.scss.tcd.ie/cityOntology/#Transport_and_Mobility"
    }
  ],
  "id": "104_crowd_areas_request",
  "type": "atomic"
}