{
  "outputs": [
    {
      "name": "_EVENTTICKETSINFO",
      "domains": [
        {
          "name": "Sport",
          "url": "http://www.surf.scss.tcd.ie/cityOntology/#Sport"
        },
        {
          "name": "Leisure",
          "url": "http://www.surf.scss.tcd.ie/cityOntology/#Leisure"
        },
        {
          "name": "Activity",
          "url": "http://www.surf.scss.tcd.ie/cityOntology/#Activity"
        }
      ],
      "type": "http://www.surf.scss.tcd.ie/IoTservices.owl#eventTicketsInfo",
      "desc": "Output of service buy_football_tickets"
    }
  ],
  "expectedPlanLength": 1,
  "inputs": [
    {
      "name": "_EVENTPARAMETERS",
      "domains": [
        {
          "name": "Sport",
          "url": "http://www.surf.scss.tcd.ie/cityOntology/#Sport"
        },
        {
          "name": "Leisure",
          "url": "http://www.surf.scss.tcd.ie/cityOntology/#Leisure"
        },
        {
          "name": "Activity",
          "url": "http://www.surf.scss.tcd.ie/cityOntology/#Activity"
        }
      ],
      "type": "http://www.surf.scss.tcd.ie/IoTservices.owl#eventParameters",
      "desc": "Input of service buy_football_tickets"
    }
  ],
  "domains": [
    {
      "name": "Sport",
      "url": "http://www.surf.scss.tcd.ie/cityOntology/#Sport"
    },
    {
      "name": "Leisure",
      "url": "http://www.surf.scss.tcd.ie/cityOntology/#Leisure"
    },
    {
      "name": "Activity",
      "url": "http://www.surf.scss.tcd.ie/cityOntology/#Activity"
    }
  ],
  "id": "119_buy_football_tickets_request",
  "type": "atomic"
}