{
  "outputs": [
    {
      "name": "_PRODUCTS",
      "domains": [
        {
          "name": "Sport",
          "url": "http://www.surf.scss.tcd.ie/cityOntology/#Sport"
        },
        {
          "name": "Leisure",
          "url": "http://www.surf.scss.tcd.ie/cityOntology/#Leisure"
        },
        {
          "name": "Activity",
          "url": "http://www.surf.scss.tcd.ie/cityOntology/#Activity"
        }
      ],
      "type": "http://www.surf.scss.tcd.ie/IoTservices.owl#products",
      "desc": "Output of service buy_sport_products"
    }
  ],
  "expectedPlanLength": 1,
  "inputs": [
    {
      "name": "_PRODUCTDATA",
      "domains": [
        {
          "name": "Sport",
          "url": "http://www.surf.scss.tcd.ie/cityOntology/#Sport"
        },
        {
          "name": "Leisure",
          "url": "http://www.surf.scss.tcd.ie/cityOntology/#Leisure"
        },
        {
          "name": "Activity",
          "url": "http://www.surf.scss.tcd.ie/cityOntology/#Activity"
        }
      ],
      "type": "http://www.surf.scss.tcd.ie/IoTservices.owl#productData",
      "desc": "Input of service buy_sport_products"
    }
  ],
  "domains": [
    {
      "name": "Sport",
      "url": "http://www.surf.scss.tcd.ie/cityOntology/#Sport"
    },
    {
      "name": "Leisure",
      "url": "http://www.surf.scss.tcd.ie/cityOntology/#Leisure"
    },
    {
      "name": "Activity",
      "url": "http://www.surf.scss.tcd.ie/cityOntology/#Activity"
    }
  ],
  "id": "130_buy_sport_products_request",
  "type": "atomic"
}