{
  "outputs": [
    {
      "name": "_PRISIONERINFO",
      "domains": [
        {
          "name": "Safety_and_Emergencies",
          "url": "http://www.surf.scss.tcd.ie/cityOntology/#Safety_and_Emergencies"
        }
      ],
      "type": "http://www.surf.scss.tcd.ie/IoTservices.owl#prisionerInfo",
      "desc": "Output of service prisioner_monitoring"
    }
  ],
  "expectedPlanLength": 1,
  "inputs": [
    {
      "name": "_PRISIONERSLIST",
      "domains": [
        {
          "name": "Safety_and_Emergencies",
          "url": "http://www.surf.scss.tcd.ie/cityOntology/#Safety_and_Emergencies"
        }
      ],
      "type": "http://www.surf.scss.tcd.ie/IoTservices.owl#prisionersList",
      "desc": "Input of service prisioner_monitoring"
    }
  ],
  "domains": [
    {
      "name": "Safety_and_Emergencies",
      "url": "http://www.surf.scss.tcd.ie/cityOntology/#Safety_and_Emergencies"
    }
  ],
  "id": "18_prisioner_monitoring_request",
  "type": "atomic"
}