{
  "outputs": [
    {
      "name": "_NOISEINFO",
      "domains": [
        {
          "name": "Transport_and_Mobility",
          "url": "http://www.surf.scss.tcd.ie/cityOntology/#Transport_and_Mobility"
        }
      ],
      "type": "http://www.surf.scss.tcd.ie/IoTservices.owl#noiseInfo",
      "desc": "Output of service route_noise_service"
    }
  ],
  "expectedPlanLength": 1,
  "inputs": [
    {
      "name": "_ROUTEPARAMETERS",
      "domains": [
        {
          "name": "Transport_and_Mobility",
          "url": "http://www.surf.scss.tcd.ie/cityOntology/#Transport_and_Mobility"
        }
      ],
      "type": "http://www.surf.scss.tcd.ie/IoTservices.owl#routeParameters",
      "desc": "Input of service route_noise_service"
    }
  ],
  "domains": [
    {
      "name": "Transport_and_Mobility",
      "url": "http://www.surf.scss.tcd.ie/cityOntology/#Transport_and_Mobility"
    }
  ],
  "id": "5_route_noise_service_request",
  "type": "atomic"
}