{
  "outputs": [
    {
      "name": "_BOOKEDROOM",
      "domains": [
        {
          "name": "Educational",
          "url": "http://www.surf.scss.tcd.ie/cityOntology/#Educational"
        }
      ],
      "type": "http://www.surf.scss.tcd.ie/IoTservices.owl#bookedRoom",
      "desc": "Output of service book_room_campus"
    }
  ],
  "expectedPlanLength": 1,
  "inputs": [
    {
      "name": "_DISPLAYROOMINFO",
      "domains": [
        {
          "name": "Educational",
          "url": "http://www.surf.scss.tcd.ie/cityOntology/#Educational"
        }
      ],
      "type": "http://www.surf.scss.tcd.ie/IoTservices.owl#displayRoomInfo",
      "desc": "Input of service book_room_campus"
    },
    {
      "name": "_DISPLAYVIDEO",
      "domains": [
        {
          "name": "Educational",
          "url": "http://www.surf.scss.tcd.ie/cityOntology/#Educational"
        }
      ],
      "type": "http://www.surf.scss.tcd.ie/IoTservices.owl#displayVideo",
      "desc": "Input of service book_room_campus"
    }
  ],
  "domains": [
    {
      "name": "Educational",
      "url": "http://www.surf.scss.tcd.ie/cityOntology/#Educational"
    }
  ],
  "id": "66_book_room_campus_request",
  "type": "atomic"
}