{
  "outputs": [
    {
      "name": "_UPDATEDROOMCALENDAR",
      "domains": [
        {
          "name": "Educational",
          "url": "http://www.surf.scss.tcd.ie/cityOntology/#Educational"
        }
      ],
      "type": "http://www.surf.scss.tcd.ie/IoTservices.owl#updatedRoomCalendar",
      "desc": "Output of service update_room_calendar"
    }
  ],
  "expectedPlanLength": 1,
  "inputs": [
    {
      "name": "_BOOKEDROOM",
      "domains": [
        {
          "name": "Educational",
          "url": "http://www.surf.scss.tcd.ie/cityOntology/#Educational"
        }
      ],
      "type": "http://www.surf.scss.tcd.ie/IoTservices.owl#bookedRoom",
      "desc": "Input of service update_room_calendar"
    }
  ],
  "domains": [
    {
      "name": "Educational",
      "url": "http://www.surf.scss.tcd.ie/cityOntology/#Educational"
    }
  ],
  "id": "67_update_room_calendar_request",
  "type": "atomic"
}