{
  "outputs": [
    {
      "name": "_INVENTORYCONFIG",
      "domains": [
        {
          "name": "Clothing",
          "url": "http://www.surf.scss.tcd.ie/cityOntology/#Clothing"
        }
      ],
      "type": "http://www.surf.scss.tcd.ie/IoTservices.owl#inventoryConfig",
      "desc": "Output of service inventory_configuration"
    }
  ],
  "expectedPlanLength": 1,
  "inputs": [
    {
      "name": "_INVENTORYDATA",
      "domains": [
        {
          "name": "Clothing",
          "url": "http://www.surf.scss.tcd.ie/cityOntology/#Clothing"
        }
      ],
      "type": "http://www.surf.scss.tcd.ie/IoTservices.owl#inventoryData",
      "desc": "Input of service inventory_configuration"
    }
  ],
  "domains": [
    {
      "name": "Clothing",
      "url": "http://www.surf.scss.tcd.ie/cityOntology/#Clothing"
    }
  ],
  "id": "71_inventory_configuration_request",
  "type": "atomic"
}