{
  "outputs": [
    {
      "name": "_PACKAGESTATUS",
      "domains": [
        {
          "name": "Logistic",
          "url": "http://www.surf.scss.tcd.ie/cityOntology/#Logistic"
        },
        {
          "name": "Communications",
          "url": "http://www.surf.scss.tcd.ie/cityOntology/#Communications"
        }
      ],
      "type": "http://www.surf.scss.tcd.ie/IoTservices.owl#packageStatus",
      "desc": "Output of service package_monitoring"
    }
  ],
  "expectedPlanLength": 1,
  "inputs": [
    {
      "name": "_ACTIVATETRACKING",
      "domains": [
        {
          "name": "Logistic",
          "url": "http://www.surf.scss.tcd.ie/cityOntology/#Logistic"
        },
        {
          "name": "Communications",
          "url": "http://www.surf.scss.tcd.ie/cityOntology/#Communications"
        }
      ],
      "type": "http://www.surf.scss.tcd.ie/IoTservices.owl#activateTracking",
      "desc": "Input of service package_monitoring"
    }
  ],
  "domains": [
    {
      "name": "Logistic",
      "url": "http://www.surf.scss.tcd.ie/cityOntology/#Logistic"
    },
    {
      "name": "Communications",
      "url": "http://www.surf.scss.tcd.ie/cityOntology/#Communications"
    }
  ],
  "id": "99_package_monitoring_request",
  "type": "atomic"
}