{
  "outputs": [
    {
      "name": "_MULTIMODALROUTEMAP",
      "domains": [
        {
          "name": "Transport_and_Mobility",
          "url": "http://www.surf.scss.tcd.ie/cityOntology/#Transport_and_Mobility"
        }
      ],
      "type": "http://www.surf.scss.tcd.ie/IoTservices.owl#multimodalRouteMap",
      "desc": "Output of service multimodal_service"
    }
  ],
  "expectedPlanLength": 1,
  "inputs": [
    {
      "name": "_BIKEAVAILABILITY",
      "domains": [
        {
          "name": "Transport_and_Mobility",
          "url": "http://www.surf.scss.tcd.ie/cityOntology/#Transport_and_Mobility"
        }
      ],
      "type": "http://www.surf.scss.tcd.ie/IoTservices.owl#bikeAvailability",
      "desc": "Input of service multimodal_service"
    },
    {
      "name": "_BUSAVAILABILITY",
      "domains": [
        {
          "name": "Transport_and_Mobility",
          "url": "http://www.surf.scss.tcd.ie/cityOntology/#Transport_and_Mobility"
        }
      ],
      "type": "http://www.surf.scss.tcd.ie/IoTservices.owl#busAvailability",
      "desc": "Input of service multimodal_service"
    }
  ],
  "domains": [
    {
      "name": "Transport_and_Mobility",
      "url": "http://www.surf.scss.tcd.ie/cityOntology/#Transport_and_Mobility"
    }
  ],
  "id": "9_multimodal_service_request",
  "type": "atomic"
}