{
  "outputs": [
    {
      "name": "_EVENTVISUALISATION",
      "domains": [
        {
          "name": "Sport",
          "url": "http://www.surf.scss.tcd.ie/cityOntology/#Sport"
        },
        {
          "name": "Activity",
          "url": "http://www.surf.scss.tcd.ie/cityOntology/#Activity"
        },
        {
          "name": "Leisure",
          "url": "http://www.surf.scss.tcd.ie/cityOntology/#Leisure"
        }
      ],
      "type": "http://www.surf.scss.tcd.ie/IoTservices.owl#eventVisualisation",
      "desc": "Output of service sport_event_dashboard"
    }
  ],
  "inputs": [
    {
      "name": "_EVENTTICKETSINFO",
      "domains": [
        {
          "name": "Sport",
          "url": "http://www.surf.scss.tcd.ie/cityOntology/#Sport"
        },
        {
          "name": "Leisure",
          "url": "http://www.surf.scss.tcd.ie/cityOntology/#Leisure"
        },
        {
          "name": "Touristic_Place",
          "url": "http://www.surf.scss.tcd.ie/cityOntology/#Touristic_Place"
        },
        {
          "name": "Activity",
          "url": "http://www.surf.scss.tcd.ie/cityOntology/#Activity"
        }
      ],
      "state": "used",
      "type": "http://www.surf.scss.tcd.ie/IoTservices.owl#eventTicketsInfo",
      "desc": "Input of service stadium_location"
    }
  ],
  "domains": [
    {
      "name": "Sport",
      "url": "http://www.surf.scss.tcd.ie/cityOntology/#Sport"
    },
    {
      "name": "Leisure",
      "url": "http://www.surf.scss.tcd.ie/cityOntology/#Leisure"
    },
    {
      "name": "Touristic_Place",
      "url": "http://www.surf.scss.tcd.ie/cityOntology/#Touristic_Place"
    },
    {
      "name": "Activity",
      "url": "http://www.surf.scss.tcd.ie/cityOntology/#Activity"
    }
  ],
  "id": "stadium_location_x_sport_event_dashboard"
}