{
  "outputs": [
    {
      "name": "_STARTALARM",
      "domains": [
        {
          "name": "Safety_and_Emergencies",
          "url": "http://www.surf.scss.tcd.ie/cityOntology/#Safety_and_Emergencies"
        }
      ],
      "type": "http://www.surf.scss.tcd.ie/IoTservices.owl#startAlarm",
      "desc": "Output of service notify_home_owner"
    }
  ],
  "inputs": [
    {
      "name": "_HOMEINFORMATION",
      "domains": [
        {
          "name": "Safety_and_Emergencies",
          "url": "http://www.surf.scss.tcd.ie/cityOntology/#Safety_and_Emergencies"
        }
      ],
      "state": "used",
      "type": "http://www.surf.scss.tcd.ie/IoTservices.owl#homeInformation",
      "desc": "Input of service home_intruder_detection"
    }
  ],
  "domains": [
    {
      "name": "Safety_and_Emergencies",
      "url": "http://www.surf.scss.tcd.ie/cityOntology/#Safety_and_Emergencies"
    }
  ],
  "id": "home_intruder_detection_x_notify_home_owner"
}