{
  "outputs": [
    {
      "name": "_weatherfront",
      "type": "string",
      "desc": "Output of service Country WeatherFront Service"
    }
  ],
  "provider": {
    "type": "asp"
  },
  "inputs": [
    {
      "name": "_country",
      "type": "string",
      "desc": "Input of service Country WeatherFront Service"
    }
  ],
  "name": "Country WeatherFront Service",
  "description": "This service informs about weatherfront in a given country.",
  "domains": [
    {
      "name": "Vehicle_Sale_and_Rent",
      "url": "http://www.surf.scss.tcd.ie/cityOntology/#Vehicle_Sale_and_Rent"
    }
  ],
  "id": "environmental/country_weatherfront_service",
  "state": true,
  "url": "http://surf.scss.tcd.ie/_provider_/environmental/country_weatherfront_service"
}