{
  "outputs": [
    {
      "name": "_abstract-information",
      "type": "string",
      "desc": "Output of service Researcher abstract information service"
    }
  ],
  "provider": {
    "type": "asp"
  },
  "inputs": [
    {
      "name": "_researcher",
      "type": "string",
      "desc": "Input of service Researcher abstract information service"
    }
  ],
  "name": "Researcher abstract information service",
  "description": "This service returns an abstract information including all publication references of a researcher.",
  "domains": [
    {
      "name": "Finance",
      "url": "http://www.surf.scss.tcd.ie/cityOntology/#Finance"
    }
  ],
  "id": "educational/researcher_abstract-information_service",
  "state": true,
  "url": "http://surf.scss.tcd.ie/_provider_/educational/researcher_abstract-information_service"
}