{
  "outputs": [
    {
      "name": "_price",
      "type": "string",
      "desc": "Output of service PrintedMaterialPriceService"
    }
  ],
  "provider": {
    "type": "wsdn"
  },
  "inputs": [
    {
      "name": "_printedmaterial",
      "type": "string",
      "desc": "Input of service PrintedMaterialPriceService"
    }
  ],
  "name": "PrintedMaterialPriceService",
  "description": "This service returns price of printed material, either it is newspaper or a fiction novel.",
  "domains": [
    {
      "name": "Medicines",
      "url": "http://www.surf.scss.tcd.ie/cityOntology/#Medicines"
    }
  ],
  "id": "retail/printedmaterial_price_service",
  "state": true,
  "url": "http://surf.scss.tcd.ie/_provider_/retail/printedmaterial_price_service"
}