{
  "outputs": [
    {
      "name": "_senior-research-fellow-in-academia",
      "type": "string",
      "desc": "Output of service HigherEducationalOrganizationSeniorResearcherFellow"
    }
  ],
  "provider": {
    "type": "asp"
  },
  "inputs": [
    {
      "name": "_higher-educational-organization",
      "type": "string",
      "desc": "Input of service HigherEducationalOrganizationSeniorResearcherFellow"
    }
  ],
  "name": "HigherEducationalOrganizationSeniorResearcherFellow",
  "description": "This service returns senior researcher fellow of the given higher educational organization.",
  "domains": [
    {
      "name": "Vehicle_Sale_and_Rent",
      "url": "http://www.surf.scss.tcd.ie/cityOntology/#Vehicle_Sale_and_Rent"
    }
  ],
  "id": "educational/higher-educational-organization_senior-research-fellow-in-academia_service",
  "state": true,
  "url": "http://surf.scss.tcd.ie/_provider_/educational/higher-educational-organization_senior-research-fellow-in-academia_service"
}