{
  "outputs": [
    {
      "name": "_price",
      "type": "string",
      "desc": "Output of service FastCar Price Color service"
    },
    {
      "name": "_color",
      "type": "string",
      "desc": "Output of service FastCar Price Color service"
    }
  ],
  "provider": {
    "type": "asp"
  },
  "inputs": [
    {
      "name": "_fastcar",
      "type": "string",
      "desc": "Input of service FastCar Price Color service"
    }
  ],
  "name": "FastCar Price Color service",
  "description": "This service provides a list of price of fast car with its color.",
  "domains": [
    {
      "name": "Construction",
      "url": "http://www.surf.scss.tcd.ie/cityOntology/#Construction"
    }
  ],
  "id": "retail/fastcar_pricecolor_service",
  "state": true,
  "url": "http://surf.scss.tcd.ie/_provider_/retail/fastcar_pricecolor_service"
}