{
  "outputs": [
    {
      "name": "_destination",
      "type": "string",
      "desc": "Output of service SurfingDestinationService"
    }
  ],
  "provider": {
    "type": "wsdn"
  },
  "inputs": [
    {
      "name": "_surfing",
      "type": "string",
      "desc": "Input of service SurfingDestinationService"
    }
  ],
  "name": "SurfingDestinationService",
  "description": "This is the best service to know aboutthe destination for surfing.",
  "domains": [
    {
      "name": "Beauty_Products",
      "url": "http://www.surf.scss.tcd.ie/cityOntology/#Beauty_Products"
    }
  ],
  "id": "tourism/surfing_destination_service",
  "state": true,
  "url": "http://surf.scss.tcd.ie/_provider_/tourism/surfing_destination_service"
}