{
  "outputs": [
    {
      "name": "_recommendedprice",
      "type": "string",
      "desc": "Output of service FoodRecommendPriceService"
    }
  ],
  "provider": {
    "type": "wsdn"
  },
  "inputs": [
    {
      "name": "_food",
      "type": "string",
      "desc": "Input of service FoodRecommendPriceService"
    }
  ],
  "name": "FoodRecommendPriceService",
  "description": "This service informs recommend price of the food.",
  "domains": [
    {
      "name": "Social_Security",
      "url": "http://www.surf.scss.tcd.ie/cityOntology/#Social_Security"
    }
  ],
  "id": "retail/food_recommendedprice_service",
  "state": true,
  "url": "http://surf.scss.tcd.ie/_provider_/retail/food_recommendedprice_service"
}