{
  "outputs": [
    {
      "name": "_diagnosticprocess",
      "type": "string",
      "desc": "Output of service DiagnosticProcessAvailability"
    }
  ],
  "provider": {
    "type": "wsdn"
  },
  "inputs": [
    {
      "name": "_hospital",
      "type": "string",
      "desc": "Input of service DiagnosticProcessAvailability"
    },
    {
      "name": "_question",
      "type": "string",
      "desc": "Input of service DiagnosticProcessAvailability"
    }
  ],
  "name": "DiagnosticProcessAvailability",
  "description": "This service returns certain type diagnostic process available in the certain hospital,if the other input is given then then the output should fulfills requirements of the user question.",
  "domains": [
    {
      "name": "Beauty_Products",
      "url": "http://www.surf.scss.tcd.ie/cityOntology/#Beauty_Products"
    }
  ],
  "id": "health/questionhospital_diagnosticprocess_service",
  "state": true,
  "url": "http://surf.scss.tcd.ie/_provider_/health/questionhospital_diagnosticprocess_service"
}