{
  "outputs": [
    {
      "name": "_recommendedprice",
      "type": "string",
      "desc": "Output of service PreparedFood RecommendedPrice Service"
    }
  ],
  "provider": {
    "type": "asp"
  },
  "inputs": [
    {
      "name": "_preparedfood",
      "type": "string",
      "desc": "Input of service PreparedFood RecommendedPrice Service"
    }
  ],
  "name": "PreparedFood RecommendedPrice Service",
  "description": "This service returns recommended price of certain prepared food.",
  "domains": [
    {
      "name": "Government_and_Planning",
      "url": "http://www.surf.scss.tcd.ie/cityOntology/#Government_and_Planning"
    }
  ],
  "id": "retail/preparedfood_recommendedprice_service",
  "state": true,
  "url": "http://surf.scss.tcd.ie/_provider_/retail/preparedfood_recommendedprice_service"
}