{
  "outputs": [
    {
      "name": "_price",
      "type": "string",
      "desc": "Output of service car price service"
    }
  ],
  "provider": {
    "type": "webservice"
  },
  "inputs": [
    {
      "name": "_car",
      "type": "string",
      "desc": "Input of service car price service"
    }
  ],
  "name": "car price service",
  "description": "This service returns price of a car.",
  "domains": [
    {
      "name": "Construction",
      "url": "http://www.surf.scss.tcd.ie/cityOntology/#Construction"
    }
  ],
  "id": "retail/car_price_service",
  "state": true,
  "url": "http://surf.scss.tcd.ie/_provider_/retail/car_price_service"
}