{
  "outputs": [
    {
      "name": "_arrowfigure",
      "type": "string",
      "desc": "Output of service RouteFinderService"
    }
  ],
  "provider": {
    "type": "webservice"
  },
  "inputs": [
    {
      "name": "_location",
      "type": "string",
      "desc": "Input of service RouteFinderService"
    },
    {
      "name": "_location",
      "type": "string",
      "desc": "Input of service RouteFinderService"
    }
  ],
  "name": "RouteFinderService",
  "description": "This service provides facility to find route from a location to the other location.",
  "domains": [
    {
      "name": "Social_Security",
      "url": "http://www.surf.scss.tcd.ie/cityOntology/#Social_Security"
    }
  ],
  "id": "mobility/locationlocation_arrowfigure_service",
  "state": true,
  "url": "http://surf.scss.tcd.ie/_provider_/mobility/locationlocation_arrowfigure_service"
}