{
  "outputs": [
    {
      "name": "_luxuryhotel",
      "type": "string",
      "desc": "Output of service City LuxuryHotel Service"
    }
  ],
  "provider": {
    "type": "wsdn"
  },
  "inputs": [
    {
      "name": "_city",
      "type": "string",
      "desc": "Input of service City LuxuryHotel Service"
    }
  ],
  "name": "City LuxuryHotel Service",
  "description": "This service returns information of a luxury hotel of a given city.",
  "domains": [
    {
      "name": "Medicines",
      "url": "http://www.surf.scss.tcd.ie/cityOntology/#Medicines"
    }
  ],
  "id": "tourism/city_luxuryhotel_service",
  "state": true,
  "url": "http://surf.scss.tcd.ie/_provider_/tourism/city_luxuryhotel_service"
}