{
  "outputs": [
    {
      "name": "_book",
      "type": "string",
      "desc": "Output of service Academic-Number Book Author booksearch"
    },
    {
      "name": "_author",
      "type": "string",
      "desc": "Output of service Academic-Number Book Author booksearch"
    }
  ],
  "provider": {
    "type": "wsdn"
  },
  "inputs": [
    {
      "name": "_academic-item-number",
      "type": "string",
      "desc": "Input of service Academic-Number Book Author booksearch"
    }
  ],
  "name": "Academic-Number Book Author booksearch",
  "description": "Informs the book and its author given the academic item number.",
  "domains": [
    {
      "name": "Accommodation",
      "url": "http://www.surf.scss.tcd.ie/cityOntology/#Accommodation"
    }
  ],
  "id": "educational/academic-item-number_bookauthor_service",
  "state": true,
  "url": "http://surf.scss.tcd.ie/_provider_/educational/academic-item-number_bookauthor_service"
}