{
  "outputs": [
    {
      "name": "_grocerystore",
      "type": "string",
      "desc": "Output of service GroceryStoreRecommendedPrice"
    },
    {
      "name": "_recommendedprice",
      "type": "string",
      "desc": "Output of service GroceryStoreRecommendedPrice"
    }
  ],
  "provider": {
    "type": "asp"
  },
  "inputs": [
    {
      "name": "_preparedfood",
      "type": "string",
      "desc": "Input of service GroceryStoreRecommendedPrice"
    }
  ],
  "name": "GroceryStoreRecommendedPrice",
  "description": "This service returns recommended price of preparedfood and avilable in a certain Grocery shop.",
  "domains": [
    {
      "name": "Clothing",
      "url": "http://www.surf.scss.tcd.ie/cityOntology/#Clothing"
    }
  ],
  "id": "retail/preparedfood_grocerystorerecommendedprice_service",
  "state": true,
  "url": "http://surf.scss.tcd.ie/_provider_/retail/preparedfood_grocerystorerecommendedprice_service"
}