{
  "outputs": [
    {
      "name": "_investigating",
      "type": "string",
      "desc": "Output of service CareOrganization Investigating service"
    }
  ],
  "provider": {
    "type": "asp"
  },
  "inputs": [
    {
      "name": "_careorganization",
      "type": "string",
      "desc": "Input of service CareOrganization Investigating service"
    }
  ],
  "name": "CareOrganization Investigating service",
  "description": "This service informa wich type of investigating facility is available in a given care organization.",
  "domains": [
    {
      "name": "Research_and_Science",
      "url": "http://www.surf.scss.tcd.ie/cityOntology/#Research_and_Science"
    }
  ],
  "id": "health/careorganization_investigating_service",
  "state": true,
  "url": "http://surf.scss.tcd.ie/_provider_/health/careorganization_investigating_service"
}