{
  "outputs": [
    {
      "name": "_price",
      "type": "string",
      "desc": "Output of service BookPriceService"
    }
  ],
  "provider": {
    "type": "asp"
  },
  "inputs": [
    {
      "name": "_book",
      "type": "string",
      "desc": "Input of service BookPriceService"
    }
  ],
  "name": "BookPriceService",
  "description": "return price of a book",
  "domains": [
    {
      "name": "Professional_Services",
      "url": "http://www.surf.scss.tcd.ie/cityOntology/#Professional_Services"
    }
  ],
  "id": "retail/book_price_service",
  "state": true,
  "url": "http://surf.scss.tcd.ie/_provider_/retail/book_price_service"
}