{
  "outputs": [
    {
      "name": "_author",
      "type": "string",
      "desc": "Output of service Science-Fiction-Novel Author Price Service"
    },
    {
      "name": "_price",
      "type": "string",
      "desc": "Output of service Science-Fiction-Novel Author Price Service"
    }
  ],
  "provider": {
    "type": "webservice"
  },
  "inputs": [
    {
      "name": "_science-fiction-novel",
      "type": "string",
      "desc": "Input of service Science-Fiction-Novel Author Price Service"
    }
  ],
  "name": "Science-Fiction-Novel Author Price Service",
  "description": "This service returns author and price of a given science-fiction-novel.",
  "domains": [
    {
      "name": "Vehicle_Sale_and_Rent",
      "url": "http://www.surf.scss.tcd.ie/cityOntology/#Vehicle_Sale_and_Rent"
    }
  ],
  "id": "retail/science-fiction-novel_authorprice_service",
  "state": true,
  "url": "http://surf.scss.tcd.ie/_provider_/retail/science-fiction-novel_authorprice_service"
}