{
  "outputs": [
    {
      "name": "_review",
      "type": "string",
      "desc": "Output of service BookPriceService"
    },
    {
      "name": "_price",
      "type": "string",
      "desc": "Output of service BookPriceService"
    }
  ],
  "provider": {
    "type": "asp"
  },
  "inputs": [
    {
      "name": "_book",
      "type": "string",
      "desc": "Input of service BookPriceService"
    }
  ],
  "name": "BookPriceService",
  "description": "This service returns not only price of a book, but also its review.",
  "domains": [
    {
      "name": "Educational",
      "url": "http://www.surf.scss.tcd.ie/cityOntology/#Educational"
    }
  ],
  "id": "retail/book_reviewprice_service",
  "state": true,
  "url": "http://surf.scss.tcd.ie/_provider_/retail/book_reviewprice_service"
}