{
  "outputs": [
    {
      "name": "_taxfreeprice",
      "type": "string",
      "desc": "Output of service PTS service"
    }
  ],
  "provider": {
    "type": "webservice"
  },
  "inputs": [
    {
      "name": "_preparedfood",
      "type": "string",
      "desc": "Input of service PTS service"
    }
  ],
  "name": "PTS service",
  "description": "PTS service informs you about tax free price of a prepared food.",
  "domains": [
    {
      "name": "Construction",
      "url": "http://www.surf.scss.tcd.ie/cityOntology/#Construction"
    }
  ],
  "id": "retail/preparedfood_taxfreeprice_service",
  "state": true,
  "url": "http://surf.scss.tcd.ie/_provider_/retail/preparedfood_taxfreeprice_service"
}