{
  "outputs": [
    {
      "name": "_urbanarea",
      "type": "string",
      "desc": "Output of service Hiking UrbanArea Service"
    }
  ],
  "provider": {
    "type": "webservice"
  },
  "inputs": [
    {
      "name": "_hiking",
      "type": "string",
      "desc": "Input of service Hiking UrbanArea Service"
    }
  ],
  "name": "Hiking UrbanArea Service",
  "description": "This service returns urbanarea for hiking.",
  "domains": [
    {
      "name": "Touristic_Place",
      "url": "http://www.surf.scss.tcd.ie/cityOntology/#Touristic_Place"
    }
  ],
  "id": "tourism/hiking_urbanarea_service",
  "state": true,
  "url": "http://surf.scss.tcd.ie/_provider_/tourism/hiking_urbanarea_service"
}