{
  "outputs": [
    {
      "name": "_city",
      "type": "string",
      "desc": "Output of service Activity City Service"
    }
  ],
  "provider": {
    "type": "asp"
  },
  "inputs": [
    {
      "name": "_activity",
      "type": "string",
      "desc": "Input of service Activity City Service"
    }
  ],
  "name": "Activity City Service",
  "description": "This service returns city for a given activity.",
  "domains": [
    {
      "name": "Waste",
      "url": "http://www.surf.scss.tcd.ie/cityOntology/#Waste"
    }
  ],
  "id": "tourism/activity_city_service",
  "state": true,
  "url": "http://surf.scss.tcd.ie/_provider_/tourism/activity_city_service"
}