{
  "outputs": [
    {
      "name": "_price",
      "type": "string",
      "desc": "Output of service BBPrice Service"
    }
  ],
  "provider": {
    "type": "wsdn"
  },
  "inputs": [
    {
      "name": "_book",
      "type": "string",
      "desc": "Input of service BBPrice Service"
    },
    {
      "name": "_user",
      "type": "string",
      "desc": "Input of service BBPrice Service"
    }
  ],
  "name": "BBPrice Service",
  "description": "BB service returns price of a book for a certain user.",
  "domains": [
    {
      "name": "Research_and_Science",
      "url": "http://www.surf.scss.tcd.ie/cityOntology/#Research_and_Science"
    }
  ],
  "id": "retail/userbook_price_service",
  "state": true,
  "url": "http://surf.scss.tcd.ie/_provider_/retail/userbook_price_service"
}