{
  "outputs": [
    {
      "name": "_price",
      "type": "string",
      "desc": "Output of service BookPrice"
    }
  ],
  "provider": {
    "type": "asp"
  },
  "inputs": [
    {
      "name": "_book",
      "type": "string",
      "desc": "Input of service BookPrice"
    }
  ],
  "name": "BookPrice",
  "description": "Uses the ISBN to return price of a book",
  "domains": [
    {
      "name": "Touristic_Place",
      "url": "http://www.surf.scss.tcd.ie/cityOntology/#Touristic_Place"
    }
  ],
  "id": "retail/book_price_service",
  "state": true,
  "url": "http://surf.scss.tcd.ie/_provider_/retail/book_price_service"
}