{
  "outputs": [
    {
      "name": "_farmland",
      "type": "string",
      "desc": "Output of service Sports Farmland Service"
    }
  ],
  "provider": {
    "type": "webservice"
  },
  "inputs": [
    {
      "name": "_sports",
      "type": "string",
      "desc": "Input of service Sports Farmland Service"
    }
  ],
  "name": "Sports Farmland Service",
  "description": "This service returns farmland for sports.",
  "domains": [
    {
      "name": "Living",
      "url": "http://www.surf.scss.tcd.ie/cityOntology/#Living"
    }
  ],
  "id": "tourism/sports_farmland_service",
  "state": true,
  "url": "http://surf.scss.tcd.ie/_provider_/tourism/sports_farmland_service"
}