{
  "outputs": [
    {
      "name": "_hotel",
      "type": "string",
      "desc": "Output of service HotelInfoService"
    }
  ],
  "provider": {
    "type": "wsdn"
  },
  "inputs": [
    {
      "name": "_country",
      "type": "string",
      "desc": "Input of service HotelInfoService"
    },
    {
      "name": "_town",
      "type": "string",
      "desc": "Input of service HotelInfoService"
    }
  ],
  "name": "HotelInfoService",
  "description": "This service returns information of a hotel, it needs two inputs country and town.",
  "domains": [
    {
      "name": "Educational",
      "url": "http://www.surf.scss.tcd.ie/cityOntology/#Educational"
    }
  ],
  "id": "tourism/towncountry_hotel_service",
  "state": true,
  "url": "http://surf.scss.tcd.ie/_provider_/tourism/towncountry_hotel_service"
}