{
  "outputs": [
    {
      "name": "_destination",
      "type": "string",
      "desc": "Output of service SOH SurfingDestinationService"
    }
  ],
  "provider": {
    "type": "webservice"
  },
  "inputs": [
    {
      "name": "_surfing",
      "type": "string",
      "desc": "Input of service SOH SurfingDestinationService"
    }
  ],
  "name": "SOH SurfingDestinationService",
  "description": "SOH presents the best service to know about the destination for surfing.",
  "domains": [
    {
      "name": "History",
      "url": "http://www.surf.scss.tcd.ie/cityOntology/#History"
    }
  ],
  "id": "tourism/surfing_destination_service",
  "state": true,
  "url": "http://surf.scss.tcd.ie/_provider_/tourism/surfing_destination_service"
}