{
  "outputs": [
    {
      "name": "_luxuryhotel",
      "type": "string",
      "desc": "Output of service LuxuryHotelInfoService"
    }
  ],
  "provider": {
    "type": "asp"
  },
  "inputs": [
    {
      "name": "_city",
      "type": "string",
      "desc": "Input of service LuxuryHotelInfoService"
    },
    {
      "name": "_country",
      "type": "string",
      "desc": "Input of service LuxuryHotelInfoService"
    }
  ],
  "name": "LuxuryHotelInfoService",
  "description": "This service is a recommended service to know about  the luxury hotelof the city of the country.",
  "domains": [
    {
      "name": "Buildings",
      "url": "http://www.surf.scss.tcd.ie/cityOntology/#Buildings"
    }
  ],
  "id": "tourism/countrycity_luxuryhotel_service",
  "state": true,
  "url": "http://surf.scss.tcd.ie/_provider_/tourism/countrycity_luxuryhotel_service"
}