{
  "outputs": [
    {
      "name": "_diagnosticprocess",
      "type": "string",
      "desc": "Output of service HDP2 service"
    },
    {
      "name": "_timeduration",
      "type": "string",
      "desc": "Output of service HDP2 service"
    }
  ],
  "provider": {
    "type": "wsdn"
  },
  "inputs": [
    {
      "name": "_hospital",
      "type": "string",
      "desc": "Input of service HDP2 service"
    }
  ],
  "name": "HDP2 service",
  "description": "HDP2 is a new version of HDP service that returns about a certain diagnostic systemavaialbe in a certain hospital, and its time duration.",
  "domains": [
    {
      "name": "Marketing",
      "url": "http://www.surf.scss.tcd.ie/cityOntology/#Marketing"
    }
  ],
  "id": "health/hospital_diagnosticprocesstimeduration_service",
  "state": true,
  "url": "http://surf.scss.tcd.ie/_provider_/health/hospital_diagnosticprocesstimeduration_service"
}