{
  "outputs": [
    {
      "name": "_price",
      "type": "string",
      "desc": "Output of service BookPriceTypeSizeService"
    },
    {
      "name": "_size",
      "type": "string",
      "desc": "Output of service BookPriceTypeSizeService"
    },
    {
      "name": "_book-type",
      "type": "string",
      "desc": "Output of service BookPriceTypeSizeService"
    }
  ],
  "provider": {
    "type": "webservice"
  },
  "inputs": [
    {
      "name": "_book",
      "type": "string",
      "desc": "Input of service BookPriceTypeSizeService"
    }
  ],
  "name": "BookPriceTypeSizeService",
  "description": "This service informs you not onlay an affordable price ofthe book but also its type (hard-cover or paper back)  and size (small/large/medium).",
  "domains": [
    {
      "name": "Leisure",
      "url": "http://www.surf.scss.tcd.ie/cityOntology/#Leisure"
    }
  ],
  "id": "retail/book_pricesizebook-type_service",
  "state": true,
  "url": "http://surf.scss.tcd.ie/_provider_/retail/book_pricesizebook-type_service"
}