{
  "outputs": [
    {
      "name": "_taxedprice",
      "type": "string",
      "desc": "Output of service PreparedFood TaxedPrice Service"
    }
  ],
  "provider": {
    "type": "webservice"
  },
  "inputs": [
    {
      "name": "_preparedfood",
      "type": "string",
      "desc": "Input of service PreparedFood TaxedPrice Service"
    }
  ],
  "name": "PreparedFood TaxedPrice Service",
  "description": "This service returns taxed price of certain prepared food.",
  "domains": [
    {
      "name": "Professional_Services",
      "url": "http://www.surf.scss.tcd.ie/cityOntology/#Professional_Services"
    }
  ],
  "id": "retail/preparedfood_taxedprice_service",
  "state": true,
  "url": "http://surf.scss.tcd.ie/_provider_/retail/preparedfood_taxedprice_service"
}