{
  "outputs": [
    {
      "name": "_taxedprice",
      "type": "string",
      "desc": "Output of service Coffee TaxedPrice Service"
    }
  ],
  "provider": {
    "type": "webservice"
  },
  "inputs": [
    {
      "name": "_coffee",
      "type": "string",
      "desc": "Input of service Coffee TaxedPrice Service"
    }
  ],
  "name": "Coffee TaxedPrice Service",
  "description": "This service returns taxed price of coffee.",
  "domains": [
    {
      "name": "Furniture_and_Housing",
      "url": "http://www.surf.scss.tcd.ie/cityOntology/#Furniture_and_Housing"
    }
  ],
  "id": "retail/coffee_taxedprice_service",
  "state": true,
  "url": "http://surf.scss.tcd.ie/_provider_/retail/coffee_taxedprice_service"
}