{
  "outputs": [
    {
      "name": "_address",
      "type": "string",
      "desc": "Output of service Researcher address  service"
    }
  ],
  "provider": {
    "type": "asp"
  },
  "inputs": [
    {
      "name": "_researcher",
      "type": "string",
      "desc": "Input of service Researcher address  service"
    }
  ],
  "name": "Researcher address  service",
  "description": "This service returns an address of a researcher.",
  "domains": [
    {
      "name": "Furniture_and_Housing",
      "url": "http://www.surf.scss.tcd.ie/cityOntology/#Furniture_and_Housing"
    }
  ],
  "id": "educational/researcher_address_service",
  "state": true,
  "url": "http://surf.scss.tcd.ie/_provider_/educational/researcher_address_service"
}