{
  "outputs": [
    {
      "name": "_maxprice",
      "type": "string",
      "desc": "Output of service Sandwich MaxPrice Service"
    }
  ],
  "provider": {
    "type": "webservice"
  },
  "inputs": [
    {
      "name": "_sandwich",
      "type": "string",
      "desc": "Input of service Sandwich MaxPrice Service"
    }
  ],
  "name": "Sandwich MaxPrice Service",
  "description": "This service returns max price of sandwich.",
  "domains": [
    {
      "name": "Vehicle_Sale_and_Rent",
      "url": "http://www.surf.scss.tcd.ie/cityOntology/#Vehicle_Sale_and_Rent"
    }
  ],
  "id": "retail/sandwich_maxprice_service",
  "state": true,
  "url": "http://surf.scss.tcd.ie/_provider_/retail/sandwich_maxprice_service"
}