{
  "outputs": [
    {
      "name": "_publication",
      "type": "string",
      "desc": "Output of service BookProviderService"
    },
    {
      "name": "_author",
      "type": "string",
      "desc": "Output of service BookProviderService"
    }
  ],
  "provider": {
    "type": "asp"
  },
  "inputs": [
    {
      "name": "_isbn",
      "type": "string",
      "desc": "Input of service BookProviderService"
    }
  ],
  "name": "BookProviderService",
  "description": "This service provides a publication and its author, on the given ISBN.",
  "domains": [
    {
      "name": "Waste",
      "url": "http://www.surf.scss.tcd.ie/cityOntology/#Waste"
    }
  ],
  "id": "educational/isbn_publicationauthor_service",
  "state": true,
  "url": "http://surf.scss.tcd.ie/_provider_/educational/isbn_publicationauthor_service"
}