{
  "outputs": [
    {
      "name": "_weatherprocess",
      "type": "string",
      "desc": "Output of service CountryWeatherProcessService"
    }
  ],
  "provider": {
    "type": "asp"
  },
  "inputs": [
    {
      "name": "_country",
      "type": "string",
      "desc": "Input of service CountryWeatherProcessService"
    }
  ],
  "name": "CountryWeatherProcessService",
  "description": "This service returns the weather process condition of a given country.",
  "domains": [
    {
      "name": "Religious",
      "url": "http://www.surf.scss.tcd.ie/cityOntology/#Religious"
    }
  ],
  "id": "environmental/country_weatherprocess_service",
  "state": true,
  "url": "http://surf.scss.tcd.ie/_provider_/environmental/country_weatherprocess_service"
}