{
  "outputs": [
    {
      "name": "_postal-address",
      "type": "string",
      "desc": "Output of service Employee postal address  service"
    }
  ],
  "provider": {
    "type": "asp"
  },
  "inputs": [
    {
      "name": "_employee",
      "type": "string",
      "desc": "Input of service Employee postal address  service"
    }
  ],
  "name": "Employee postal address  service",
  "description": "This service returns an address of an employee of a university.",
  "domains": [
    {
      "name": "Leisure",
      "url": "http://www.surf.scss.tcd.ie/cityOntology/#Leisure"
    }
  ],
  "id": "educational/employee_postal-address_service",
  "state": true,
  "url": "http://surf.scss.tcd.ie/_provider_/educational/employee_postal-address_service"
}