{
  "outputs": [
    {
      "name": "_drought",
      "type": "string",
      "desc": "Output of service Country Drought Service"
    }
  ],
  "provider": {
    "type": "wsdn"
  },
  "inputs": [
    {
      "name": "_country",
      "type": "string",
      "desc": "Input of service Country Drought Service"
    }
  ],
  "name": "Country Drought Service",
  "description": "This service informs about drought in a given country.",
  "domains": [
    {
      "name": "Transport_and_Mobility",
      "url": "http://www.surf.scss.tcd.ie/cityOntology/#Transport_and_Mobility"
    }
  ],
  "id": "environmental/country_drought_service",
  "state": true,
  "url": "http://surf.scss.tcd.ie/_provider_/environmental/country_drought_service"
}