{
  "outputs": [
    {
      "name": "_taxedprice",
      "type": "string",
      "desc": "Output of service Car TaxedPrice Report service"
    },
    {
      "name": "_report",
      "type": "string",
      "desc": "Output of service Car TaxedPrice Report service"
    }
  ],
  "provider": {
    "type": "wsdn"
  },
  "inputs": [
    {
      "name": "_car",
      "type": "string",
      "desc": "Input of service Car TaxedPrice Report service"
    }
  ],
  "name": "Car TaxedPrice Report service",
  "description": "This service returns not only taxed price of a car, but also a short report about its recommendation.",
  "domains": [
    {
      "name": "Arts",
      "url": "http://www.surf.scss.tcd.ie/cityOntology/#Arts"
    }
  ],
  "id": "retail/car_taxedpricereport_service",
  "state": true,
  "url": "http://surf.scss.tcd.ie/_provider_/retail/car_taxedpricereport_service"
}