{
  "outputs": [
    {
      "name": "_taxedprice",
      "type": "string",
      "desc": "Output of service Sandwich TaxedPrice Service"
    }
  ],
  "provider": {
    "type": "asp"
  },
  "inputs": [
    {
      "name": "_sandwich",
      "type": "string",
      "desc": "Input of service Sandwich TaxedPrice Service"
    }
  ],
  "name": "Sandwich TaxedPrice Service",
  "description": "This service returns taxed price of sandwich.",
  "domains": [
    {
      "name": "Foundations_and_Charity",
      "url": "http://www.surf.scss.tcd.ie/cityOntology/#Foundations_and_Charity"
    }
  ],
  "id": "retail/sandwich_taxedprice_service",
  "state": true,
  "url": "http://surf.scss.tcd.ie/_provider_/retail/sandwich_taxedprice_service"
}