{
  "outputs": [
    {
      "name": "_author",
      "type": "string",
      "desc": "Output of service Science-Fiction-Novel Author RecommendedPrice Service"
    },
    {
      "name": "_recommendedprice",
      "type": "string",
      "desc": "Output of service Science-Fiction-Novel Author RecommendedPrice Service"
    }
  ],
  "provider": {
    "type": "wsdn"
  },
  "inputs": [
    {
      "name": "_science-fiction-novel",
      "type": "string",
      "desc": "Input of service Science-Fiction-Novel Author RecommendedPrice Service"
    }
  ],
  "name": "Science-Fiction-Novel Author RecommendedPrice Service",
  "description": "This service returns author and recommended price of a given science fiction novel.",
  "domains": [
    {
      "name": "Religious",
      "url": "http://www.surf.scss.tcd.ie/cityOntology/#Religious"
    }
  ],
  "id": "retail/science-fiction-novel_authorrecommendedprice_service",
  "state": true,
  "url": "http://surf.scss.tcd.ie/_provider_/retail/science-fiction-novel_authorrecommendedprice_service"
}