{
  "outputs": [
    {
      "name": "_research-fellow-in-academia",
      "type": "string",
      "desc": "Output of service UniversityResearchFellowService"
    }
  ],
  "provider": {
    "type": "asp"
  },
  "inputs": [
    {
      "name": "_university",
      "type": "string",
      "desc": "Input of service UniversityResearchFellowService"
    }
  ],
  "name": "UniversityResearchFellowService",
  "description": "This service returns research fellow of the university.",
  "domains": [
    {
      "name": "Foundations_and_Charity",
      "url": "http://www.surf.scss.tcd.ie/cityOntology/#Foundations_and_Charity"
    }
  ],
  "id": "educational/university_research-fellow-in-academia_service",
  "state": true,
  "url": "http://surf.scss.tcd.ie/_provider_/educational/university_research-fellow-in-academia_service"
}