{
  "outputs": [
    {
      "name": "_hotel",
      "type": "string",
      "desc": "Output of service GeographicalRegionHotelService"
    }
  ],
  "provider": {
    "type": "wsdn"
  },
  "inputs": [
    {
      "name": "_geographical-region",
      "type": "string",
      "desc": "Input of service GeographicalRegionHotelService"
    }
  ],
  "name": "GeographicalRegionHotelService",
  "description": "This service is the recommended service to know about the hotelin a geographical region.",
  "domains": [
    {
      "name": "Government_and_Planning",
      "url": "http://www.surf.scss.tcd.ie/cityOntology/#Government_and_Planning"
    }
  ],
  "id": "tourism/geographical-region_hotel_service",
  "state": true,
  "url": "http://surf.scss.tcd.ie/_provider_/tourism/geographical-region_hotel_service"
}