{
  "outputs": [
    {
      "name": "_book",
      "type": "string",
      "desc": "Output of service ABN/ISBN Booksearch"
    }
  ],
  "provider": {
    "type": "webservice"
  },
  "inputs": [
    {
      "name": "_publication-number",
      "type": "string",
      "desc": "Input of service ABN/ISBN Booksearch"
    }
  ],
  "name": "ABN/ISBN Booksearch",
  "description": "Searches for a book if either the academic book number or the ISBN is avaible",
  "domains": [
    {
      "name": "Research_and_Science",
      "url": "http://www.surf.scss.tcd.ie/cityOntology/#Research_and_Science"
    }
  ],
  "id": "educational/publication-number_book_service",
  "state": true,
  "url": "http://surf.scss.tcd.ie/_provider_/educational/publication-number_book_service"
}