{
  "outputs": [
    {
      "name": "_recommendedprice",
      "type": "string",
      "desc": "Output of service CarRecommendedPrice service"
    }
  ],
  "provider": {
    "type": "wsdn"
  },
  "inputs": [
    {
      "name": "_car",
      "type": "string",
      "desc": "Input of service CarRecommendedPrice service"
    }
  ],
  "name": "CarRecommendedPrice service",
  "description": "This service returns recommended price of the car.",
  "domains": [
    {
      "name": "Health",
      "url": "http://www.surf.scss.tcd.ie/cityOntology/#Health"
    }
  ],
  "id": "retail/car_recommendedprice_service",
  "state": true,
  "url": "http://surf.scss.tcd.ie/_provider_/retail/car_recommendedprice_service"
}