{
  "outputs": [
    {
      "name": "_author",
      "type": "string",
      "desc": "Output of service Short-Story Author MaxPrice Service"
    },
    {
      "name": "_maxprice",
      "type": "string",
      "desc": "Output of service Short-Story Author MaxPrice Service"
    }
  ],
  "provider": {
    "type": "asp"
  },
  "inputs": [
    {
      "name": "_short-story",
      "type": "string",
      "desc": "Input of service Short-Story Author MaxPrice Service"
    }
  ],
  "name": "Short-Story Author MaxPrice Service",
  "description": "This service returns author and maxprice of a given short-story.",
  "domains": [
    {
      "name": "Finance",
      "url": "http://www.surf.scss.tcd.ie/cityOntology/#Finance"
    }
  ],
  "id": "retail/short-story_authormaxprice_service",
  "state": true,
  "url": "http://surf.scss.tcd.ie/_provider_/retail/short-story_authormaxprice_service"
}