{
  "outputs": [
    {
      "name": "_price",
      "type": "string",
      "desc": "Output of service apple_price_service"
    }
  ],
  "provider": {
    "type": "webservice"
  },
  "inputs": [
    {
      "name": "_apple",
      "type": "string",
      "desc": "Input of service apple_price_service"
    }
  ],
  "name": "apple_price_service",
  "description": "This service is about retail",
  "domains": [
    {
      "name": "Medicines",
      "url": "http://www.surf.scss.tcd.ie/cityOntology/#Medicines"
    }
  ],
  "id": "retail/apple_price_service",
  "state": true,
  "url": "http://surf.scss.tcd.ie/_provider_/retail/apple_price_service"
}