{
  "outputs": [
    {
      "name": "_recommendedprice",
      "type": "string",
      "desc": "Output of service BookRecommendedPriceService"
    }
  ],
  "provider": {
    "type": "webservice"
  },
  "inputs": [
    {
      "name": "_book",
      "type": "string",
      "desc": "Input of service BookRecommendedPriceService"
    }
  ],
  "name": "BookRecommendedPriceService",
  "description": "This service can be used by only a registerd user, it returns the bestrecommended price of a book.",
  "domains": [
    {
      "name": "Accommodation",
      "url": "http://www.surf.scss.tcd.ie/cityOntology/#Accommodation"
    }
  ],
  "id": "retail/book_recommendedprice_service",
  "state": true,
  "url": "http://surf.scss.tcd.ie/_provider_/retail/book_recommendedprice_service"
}