{
  "outputs": [
    {
      "name": "_author",
      "type": "string",
      "desc": "Output of service Novel Author MaxPrice Service"
    },
    {
      "name": "_maxprice",
      "type": "string",
      "desc": "Output of service Novel Author MaxPrice Service"
    }
  ],
  "provider": {
    "type": "wsdn"
  },
  "inputs": [
    {
      "name": "_novel",
      "type": "string",
      "desc": "Input of service Novel Author MaxPrice Service"
    }
  ],
  "name": "Novel Author MaxPrice Service",
  "description": "This service returns author and max price of a given novel.",
  "domains": [
    {
      "name": "Beauty_Products",
      "url": "http://www.surf.scss.tcd.ie/cityOntology/#Beauty_Products"
    }
  ],
  "id": "retail/novel_authormaxprice_service",
  "state": true,
  "url": "http://surf.scss.tcd.ie/_provider_/retail/novel_authormaxprice_service"
}