{
  "outputs": [
    {
      "name": "_destination",
      "type": "string",
      "desc": "Output of service Activity Destination Service"
    }
  ],
  "provider": {
    "type": "wsdn"
  },
  "inputs": [
    {
      "name": "_activity",
      "type": "string",
      "desc": "Input of service Activity Destination Service"
    }
  ],
  "name": "Activity Destination Service",
  "description": "This service returns destination for a given activity.",
  "domains": [
    {
      "name": "Arts",
      "url": "http://www.surf.scss.tcd.ie/cityOntology/#Arts"
    }
  ],
  "id": "tourism/activity_destination_service",
  "state": true,
  "url": "http://surf.scss.tcd.ie/_provider_/tourism/activity_destination_service"
}