{
  "outputs": [
    {
      "name": "_lecturer-in-academia",
      "type": "string",
      "desc": "Output of service UniversityLecturerService"
    }
  ],
  "provider": {
    "type": "wsdn"
  },
  "inputs": [
    {
      "name": "_university",
      "type": "string",
      "desc": "Input of service UniversityLecturerService"
    }
  ],
  "name": "UniversityLecturerService",
  "description": "Lecturer is also a person who conducts a course in the university.This service returns name of lecturers who teach the currentsemmester of the university.",
  "domains": [
    {
      "name": "History",
      "url": "http://www.surf.scss.tcd.ie/cityOntology/#History"
    }
  ],
  "id": "educational/university_lecturer-in-academia_service",
  "state": true,
  "url": "http://surf.scss.tcd.ie/_provider_/educational/university_lecturer-in-academia_service"
}