{
  "outputs": [
    {
      "name": "_beach",
      "type": "string",
      "desc": "Output of service SportsBeachService"
    }
  ],
  "provider": {
    "type": "wsdn"
  },
  "inputs": [
    {
      "name": "_sports",
      "type": "string",
      "desc": "Input of service SportsBeachService"
    }
  ],
  "name": "SportsBeachService",
  "description": "This is a recommended service to know aboutthe beach for the beach sports.",
  "domains": [
    {
      "name": "Foundations_and_Charity",
      "url": "http://www.surf.scss.tcd.ie/cityOntology/#Foundations_and_Charity"
    }
  ],
  "id": "tourism/sports_beach_service",
  "state": true,
  "url": "http://surf.scss.tcd.ie/_provider_/tourism/sports_beach_service"
}