{
  "outputs": [
    {
      "name": "_diagnosticprocess",
      "type": "string",
      "desc": "Output of service CAD service"
    },
    {
      "name": "_lengthmeasure",
      "type": "string",
      "desc": "Output of service CAD service"
    }
  ],
  "provider": {
    "type": "wsdn"
  },
  "inputs": [
    {
      "name": "_careorganization",
      "type": "string",
      "desc": "Input of service CAD service"
    }
  ],
  "name": "CAD service",
  "description": "CAD is a famous service to inform you about diagnostic processand its length (duration) available in certain care organization.",
  "domains": [
    {
      "name": "Beauty_Products",
      "url": "http://www.surf.scss.tcd.ie/cityOntology/#Beauty_Products"
    }
  ],
  "id": "health/careorganization_diagnosticprocesslengthmeasure_service",
  "state": true,
  "url": "http://surf.scss.tcd.ie/_provider_/health/careorganization_diagnosticprocesslengthmeasure_service"
}