{
  "outputs": [
    {
      "name": "_year",
      "type": "string",
      "desc": "Output of service 4WheeledCar Year Price Service"
    },
    {
      "name": "_price",
      "type": "string",
      "desc": "Output of service 4WheeledCar Year Price Service"
    }
  ],
  "provider": {
    "type": "asp"
  },
  "inputs": [
    {
      "name": "_4wheeledcar",
      "type": "string",
      "desc": "Input of service 4WheeledCar Year Price Service"
    }
  ],
  "name": "4WheeledCar Year Price Service",
  "description": "This service provides the and model year of a given 4wheeled car.",
  "domains": [
    {
      "name": "Pharmacy_Products",
      "url": "http://www.surf.scss.tcd.ie/cityOntology/#Pharmacy_Products"
    }
  ],
  "id": "retail/4wheeledcar_yearprice_service",
  "state": true,
  "url": "http://surf.scss.tcd.ie/_provider_/retail/4wheeledcar_yearprice_service"
}