{
  "outputs": [
    {
      "name": "_recommendedprice",
      "type": "string",
      "desc": "Output of service 3wheeledcar year recommended price service"
    }
  ],
  "provider": {
    "type": "webservice"
  },
  "inputs": [
    {
      "name": "_3wheeledcar",
      "type": "string",
      "desc": "Input of service 3wheeledcar year recommended price service"
    },
    {
      "name": "_year",
      "type": "string",
      "desc": "Input of service 3wheeledcar year recommended price service"
    }
  ],
  "name": "3wheeledcar year recommended price service",
  "description": "This service informs the recommended price of a three wheeled car given the model year.",
  "domains": [
    {
      "name": "Technology",
      "url": "http://www.surf.scss.tcd.ie/cityOntology/#Technology"
    }
  ],
  "id": "retail/3wheeledcaryear_recommendedprice_service",
  "state": true,
  "url": "http://surf.scss.tcd.ie/_provider_/retail/3wheeledcaryear_recommendedprice_service"
}