{
  "outputs": [
    {
      "name": "_map",
      "type": "string",
      "desc": "Output of service Route from Frankfurt Service"
    }
  ],
  "provider": {
    "type": "wsdn"
  },
  "inputs": [
    {
      "name": "_geographical-region",
      "type": "string",
      "desc": "Input of service Route from Frankfurt Service"
    }
  ],
  "name": "Route from Frankfurt Service",
  "description": "This service provides all relative paths from Frankfurt to your location.",
  "domains": [
    {
      "name": "Health",
      "url": "http://www.surf.scss.tcd.ie/cityOntology/#Health"
    }
  ],
  "id": "mobility/geographical-region_map_service",
  "state": true,
  "url": "http://surf.scss.tcd.ie/_provider_/mobility/geographical-region_map_service"
}