{
  "outputs": [
    {
      "name": "_farmland",
      "type": "string",
      "desc": "Output of service Activity Farmland Service"
    }
  ],
  "provider": {
    "type": "wsdn"
  },
  "inputs": [
    {
      "name": "_activity",
      "type": "string",
      "desc": "Input of service Activity Farmland Service"
    }
  ],
  "name": "Activity Farmland Service",
  "description": "This service returns farmland for a given activity.",
  "domains": [
    {
      "name": "Accommodation",
      "url": "http://www.surf.scss.tcd.ie/cityOntology/#Accommodation"
    }
  ],
  "id": "tourism/activity_farmland_service",
  "state": true,
  "url": "http://surf.scss.tcd.ie/_provider_/tourism/activity_farmland_service"
}