{
  "outputs": [
    {
      "name": "_recommendedprice",
      "type": "string",
      "desc": "Output of service Threewheeled Car Recommended Price service"
    }
  ],
  "provider": {
    "type": "wsdn"
  },
  "inputs": [
    {
      "name": "_3wheeledcar",
      "type": "string",
      "desc": "Input of service Threewheeled Car Recommended Price service"
    },
    {
      "name": "_amount-of-money",
      "type": "string",
      "desc": "Input of service Threewheeled Car Recommended Price service"
    }
  ],
  "name": "Threewheeled Car Recommended Price service",
  "description": "This service tries to find the recommended price of a three wheeled car within given amount of money.",
  "domains": [
    {
      "name": "Beauty_Products",
      "url": "http://www.surf.scss.tcd.ie/cityOntology/#Beauty_Products"
    }
  ],
  "id": "retail/amount-of-money3wheeledcar_recommendedprice_service",
  "state": true,
  "url": "http://surf.scss.tcd.ie/_provider_/retail/amount-of-money3wheeledcar_recommendedprice_service"
}