{
  "outputs": [
    {
      "name": "_lecturer-in-academia",
      "type": "string",
      "desc": "Output of service LearnedCenteredOrganizationLecturer Service"
    }
  ],
  "provider": {
    "type": "wsdn"
  },
  "inputs": [
    {
      "name": "_learning-centred-organization",
      "type": "string",
      "desc": "Input of service LearnedCenteredOrganizationLecturer Service"
    }
  ],
  "name": "LearnedCenteredOrganizationLecturer Service",
  "description": "This service returns lecturer of the given learned center organization.",
  "domains": [
    {
      "name": "Activity",
      "url": "http://www.surf.scss.tcd.ie/cityOntology/#Activity"
    }
  ],
  "id": "educational/learning-centred-organization_lecturer-in-academia_service",
  "state": true,
  "url": "http://surf.scss.tcd.ie/_provider_/educational/learning-centred-organization_lecturer-in-academia_service"
}