{
  "outputs": [
    {
      "name": "_taxedprice",
      "type": "string",
      "desc": "Output of service FastCar TaxedPrice Report service"
    },
    {
      "name": "_report",
      "type": "string",
      "desc": "Output of service FastCar TaxedPrice Report service"
    }
  ],
  "provider": {
    "type": "wsdn"
  },
  "inputs": [
    {
      "name": "_fastcar",
      "type": "string",
      "desc": "Input of service FastCar TaxedPrice Report service"
    }
  ],
  "name": "FastCar TaxedPrice Report service",
  "description": "This service returns not only taxed price of a fastcar, but also a short report about its recommendation.",
  "domains": [
    {
      "name": "Energy",
      "url": "http://www.surf.scss.tcd.ie/cityOntology/#Energy"
    }
  ],
  "id": "retail/fastcar_taxedpricereport_service",
  "state": true,
  "url": "http://surf.scss.tcd.ie/_provider_/retail/fastcar_taxedpricereport_service"
}