{
  "outputs": [
    {
      "name": "_investigating",
      "type": "string",
      "desc": "Output of service HospitalInvestService"
    },
    {
      "name": "_address",
      "type": "string",
      "desc": "Output of service HospitalInvestService"
    }
  ],
  "provider": {
    "type": "webservice"
  },
  "inputs": [
    {
      "name": "_hospital",
      "type": "string",
      "desc": "Input of service HospitalInvestService"
    }
  ],
  "name": "HospitalInvestService",
  "description": "This service returns investigating facility in the given hospital and its address.",
  "domains": [
    {
      "name": "Foundations_and_Charity",
      "url": "http://www.surf.scss.tcd.ie/cityOntology/#Foundations_and_Charity"
    }
  ],
  "id": "health/hospital_investigatingaddress_service",
  "state": true,
  "url": "http://surf.scss.tcd.ie/_provider_/health/hospital_investigatingaddress_service"
}