{
  "outputs": [
    {
      "name": "_icon",
      "type": "string",
      "desc": "Output of service roadway signs Service"
    }
  ],
  "provider": {
    "type": "webservice"
  },
  "inputs": [
    {
      "name": "_geographical-region",
      "type": "string",
      "desc": "Input of service roadway signs Service"
    },
    {
      "name": "_geographical-region",
      "type": "string",
      "desc": "Input of service roadway signs Service"
    }
  ],
  "name": "roadway signs Service",
  "description": "This service returns an icon to indicate roadway signs between two geographical locations.",
  "domains": [
    {
      "name": "Arts",
      "url": "http://www.surf.scss.tcd.ie/cityOntology/#Arts"
    }
  ],
  "id": "mobility/geographical-regiongeographical-region_icon_service",
  "state": true,
  "url": "http://surf.scss.tcd.ie/_provider_/mobility/geographical-regiongeographical-region_icon_service"
}