{
  "outputs": [
    {
      "name": "_researcher",
      "type": "string",
      "desc": "Output of service UniversityResearcherService"
    }
  ],
  "provider": {
    "type": "wsdn"
  },
  "inputs": [
    {
      "name": "_university",
      "type": "string",
      "desc": "Input of service UniversityResearcherService"
    }
  ],
  "name": "UniversityResearcherService",
  "description": "This service returns researcher of a university",
  "domains": [
    {
      "name": "Finance",
      "url": "http://www.surf.scss.tcd.ie/cityOntology/#Finance"
    }
  ],
  "id": "educational/university_researcher_service",
  "state": true,
  "url": "http://surf.scss.tcd.ie/_provider_/educational/university_researcher_service"
}