{
  "outputs": [
    {
      "name": "_recommendedprice",
      "type": "string",
      "desc": "Output of service Expensive Car Recommended Price service"
    }
  ],
  "provider": {
    "type": "wsdn"
  },
  "inputs": [
    {
      "name": "_expensivecar",
      "type": "string",
      "desc": "Input of service Expensive Car Recommended Price service"
    },
    {
      "name": "_amount-of-money",
      "type": "string",
      "desc": "Input of service Expensive Car Recommended Price service"
    }
  ],
  "name": "Expensive Car Recommended Price service",
  "description": "This service tries to find the recommended price of a expensive car within given amount of money.",
  "domains": [
    {
      "name": "Safety_and_Emergencies",
      "url": "http://www.surf.scss.tcd.ie/cityOntology/#Safety_and_Emergencies"
    }
  ],
  "id": "retail/amount-of-moneyexpensivecar_recommendedprice_service",
  "state": true,
  "url": "http://surf.scss.tcd.ie/_provider_/retail/amount-of-moneyexpensivecar_recommendedprice_service"
}